[
  {
    "//": "Comment, http://localhost:9091/merchant/signup",
    "mobileNumber": "68346583658384",
    "password": "clickshop",
    "firstName": "Abhi",
    "lastName": "Shek",
    "address": "Ble",
    "gstNumber": "1",
    "storeNumber": "1",
    "email": "abc@fhkshfjk.com",
    "flag": "1",
    "firebaseToken": "ashdkadh732364jwfnf6283468",
    "deviceUniqueId": "dummyId",
    "deviceType": "1",
    "latitude": "28.4783658",
    "longitude": "34.868878"
  },
  {
    "//": "Comment, http://localhost:9091/merchant/signin",
    "mobileNumber": "68346583658384",
    "password": "clickshop",
    "firebaseToken": "2788cb28yv852yv28vby582y58v28y28vy852y582y582vy8vb82yv85b"
  },
  {
    "//": "Comment, http://localhost:9091/merchant/signout",
    "mobileNumber": "68346583658384"
  },
  {
    "//": "Comment, http://localhost:9091/merchant/getFlag",
    "merchantId": "1"
  }
]