[
  {
    "//": "Comment, http://localhost:9091/merchant/saveItem",
    "mobileNumber": "68346583658384",
    "merchantId": "1",
    "itemId": "8",
    "itemName": "Mantra Rice",
    "itemCategoryId": "2",
    "itemPrice": "70",
    "type": "Non-Brand",
    "sessionId": "1135580947967714"
  },
  {
    "//": "Comment, http://localhost:9091/merchant/getStoreItem",
    "mobileNumber": "68346583658384",
    "merchantId": "1",
    "sessionId": "1135580947967714"
  },
  {
    "//": "Comment, http://localhost:9091/merchant/deleteItem",
    "mobileNumber": "68346583658384",
    "merchantId": "1",
    "itemId": "4",
    "type": "Non-Brand",
    "sessionId": "1135580947967714"
  },
  {
    "//": "Comment, http://localhost:9091/merchant/updateItem",
    "mobileNumber": "68346583658384",
    "merchantId": "1",
    "itemId": "2",
    "itemName": "Cauliflower",
    "itemPrice": "135",
    "type": "Non-Brand",
    "sessionId": "1135580947967714"
  }
]