[
  {
    "//": "Comment, http://localhost:9093/user/placeOrder",
    "userId": "2",
    "shippingAddress": "BTM 560076",
    "paymentMode": "Cash",
    "orderAmount": "3578",
    "storeId": "2",
    "deliveryCharge": "0",
    "deviceUniqueId": "asd234hdi345",
    "sessionId": "1394076808424251",
    "itemList": [
      {
        "itemMerchantId": "2",
        "itemPrice": "30",
        "itemQuantityRequested": "2",
        "totalPrice": "60"
      },
      {
        "itemMerchantId": "3",
        "itemPrice": "10",
        "itemQuantityRequested": "3",
        "totalPrice": "454"
      }
    ]
  },
  {
    "//": "Comment, http://localhost:9093/user/searchOrder",
    "orderId": "O10F761116084659"
  },
  {
    "//": "Comment, http://localhost:9093/user/getOrderStatus",
    "userId": 2,
    "orderStatus": "New",
    "deviceUniqueId": "asd234hdi345",
    "sessionId": "1394076808424251"
  },
  {
    "//": "Comment, http://localhost:9093/user/getUserCurrentOrders",
    "userId": 2,
    "deviceUniqueId": "asd234hdi345",
    "sessionId": "1394076808424251"
  },
  {
    "//": "Comment, http://localhost:9093/user/getUserOrderList",
    "userId": 2,
    "deviceUniqueId": "asd234hdi345",
    "sessionId": "1394076808424251"
  },
  {
    "//": "Comment, http://localhost:9093/user/getOrderDeliveryCharge",
    "storeId": 1
  }

]