[
  {
    "//": "Comment, http://localhost:9093/user/searchOfferOnStoreItemItem",
    "latitude": "12.971940",
    "longitude": "77.593690"
  },
  {
    "//": "Comment, http://localhost:9093/user/searchOfferOnStoreItemItem",
    "storeId": "1",
    "itemName": "24 Mantra Organic",
    "itemCategory": "food",
    "latitude": "343",
    "longitude": "76"
  }
]